dplyr -- 2实战
…
filter(flights,origin == "JFK",month == 6L) #－ 获取六月份所有从”JFK”机场起飞的航班

## # A tibble: 9,472 x 19
##     year month   day dep_time sched_dep_time dep_delay arr_time sched_arr_time
##    <int> <int> <int>    <int>          <int>     <dbl>    <int>          <int>
##  1  2013     6     1        2           2359         3      341            350
##  2  2013     6     1      538            545        -7      925            922
##  3  2013     6     1      539            540        -1      832            840
##  4  2013     6     1      553            600        -7      700            711
##  5  2013     6     1      554            600        -6      851            908
##  6  2013     6     1      557            600        -3      934            942
##  7  2013     6     1      559            600        -1      856            930
##  8  2013     6     1      606            610        -4      847            906
##  9  2013     6     1      609            615        -6      759            808
## 10  2013     6     1      615            610         5      837            847
## # … with 9,462 more rows, and 11 more variables: arr_delay <dbl>,
## #   carrier <chr>, flight <int>, tailnum <chr>, origin <chr>, dest <chr>,
## #   air_time <dbl>, distance <dbl>, hour <dbl>, minute <dbl>, time_hour <dttm>
…
## # A tibble: 4 x 19
##    year month   day dep_time sched_dep_time dep_delay arr_time sched_arr_time
##   <int> <int> <int>    <int>          <int>     <dbl>    <int>          <int>
## 1  2013     8    22     1857           1705       112     2150           2020
## 2  2013     5    27     1958           1925        33     2152           2129
## 3  2013     9    10     1345           1345         0     1520           1520
## 4  2013    11    21     1058           1100        -2     1311           1304
## # … with 11 more variables: arr_delay <dbl>, carrier <chr>, flight <int>,
## #   tailnum <chr>, origin <chr>, dest <chr>, air_time <dbl>, distance <dbl>,
## #   hour <dbl>, minute <dbl>, time_hour <dttm>

flights %>% top_n(4,dep_time)

## # A tibble: 29 x 19
##     year month   day dep_time sched_dep_time dep_delay arr_time sched_arr_time
##    <int> <int> <int>    <int>          <int>     <dbl>    <int>          <int>
##  1  2013    10    30     2400           2359         1      327            337
##  2  2013    11    27     2400           2359         1      515            445
##  3  2013    12     5     2400           2359         1      427            440
##  4  2013    12     9     2400           2359         1      432            440
##  5  2013    12     9     2400           2250        70       59           2356
##  6  2013    12    13     2400           2359         1      432            440
##  7  2013    12    19     2400           2359         1      434            440
##  8  2013    12    29     2400           1700       420      302           2025
##  9  2013     2     7     2400           2359         1      432            436
## 10  2013     2     7     2400           2359         1      443            444
## # … with 19 more rows, and 11 more variables: arr_delay <dbl>, carrier <chr>,
## #   flight <int>, tailnum <chr>, origin <chr>, dest <chr>, air_time <dbl>,
## #   distance <dbl>, hour <dbl>, minute <dbl>, time_hour <dttm>
…
行同时选择——子集

filter(flights,origin == "JFK",month == 6L) %>%select(day:arr_delay)

## # A tibble: 9,472 x 7
##      day dep_time sched_dep_time dep_delay arr_time sched_arr_time arr_delay
##    <int>    <int>          <int>     <dbl>    <int>          <int>     <dbl>
##  1     1        2           2359         3      341            350        -9
##  2     1      538            545        -7      925            922         3
##  3     1      539            540        -1      832            840        -8
##  4     1      553            600        -7      700            711       -11
##  5     1      554            600        -6      851            908       -17
##  6     1      557            600        -3      934            942        -8
##  7     1      559            600        -1      856            930       -34
##  8     1      606            610        -4      847            906       -19
##  9     1      609            615        -6      759            808        -9
## 10     1      615            610         5      837            847       -10
## # … with 9,462 more rows
…
flights %>%head() %>%  transmute_if(is.integer,funs(as.character(.)))  #把整数类型的列转换为字符串  

## # A tibble: 6 x 8
##   year  month day   dep_time sched_dep_time arr_time sched_arr_time flight
##   <chr> <chr> <chr> <chr>    <chr>          <chr>    <chr>          <chr> 
## 1 2013  1     1     517      515            830      819            1545  
## 2 2013  1     1     533      529            850      830            1714  
## 3 2013  1     1     542      540            923      850            1141  
## 4 2013  1     1     544      545            1004     1022           725   
## 5 2013  1     1     554      600            812      837            461   
## 6 2013  1     1     554      558            740      728            1696

flights 

## # A tibble: 336,776 x 19
##     year month   day dep_time sched_dep_time dep_delay arr_time sched_arr_time
##    <int> <int> <int>    <int>          <int>     <dbl>    <int>          <int>
##  1  2013     1     1      517            515         2      830            819
##  2  2013     1     1      533            529         4      850            830
##  3  2013     1     1      542            540         2      923            850
##  4  2013     1     1      544            545        -1     1004           1022
##  5  2013     1     1      554            600        -6      812            837
##  6  2013     1     1      554            558        -4      740            728
##  7  2013     1     1      555            600        -5      913            854
##  8  2013     1     1      557            600        -3      709            723
##  9  2013     1     1      557            600        -3      838            846
## 10  2013     1     1      558            600        -2      753            745
## # … with 336,766 more rows, and 11 more variables: arr_delay <dbl>,
## #   carrier <chr>, flight <int>, tailnum <chr>, origin <chr>, dest <chr>,
## #   air_time <dbl>, distance <dbl>, hour <dbl>, minute <dbl>, time_hour <dttm>

# 可以在同一语句中对刚新增加的列进行操作:
transmute(flights, 
       gain = arr_delay + dep_delay, 
       gain_per_hour = gain / (arr_time / 60))

## # A tibble: 336,776 x 2
##     gain gain_per_hour
##    <dbl>         <dbl>
##  1    13         0.940
##  2    24         1.69 
##  3    35         2.28 
##  4   -19        -1.14 
##  5   -31        -2.29 
##  6     8         0.649
##  7    14         0.920
##  8   -17        -1.44 
##  9   -11        -0.788
## 10     6         0.478
## # … with 336,766 more rows
…
iris %>% group_by(Species) %>% summarise_each(funs(min(.),max(.)))

## # A tibble: 3 x 9
##   Species Sepal.Length_min Sepal.Width_min Petal.Length_min Petal.Width_min
##   <fct>              <dbl>           <dbl>            <dbl>           <dbl>
## 1 setosa               4.3             2.3              1               0.1
## 2 versic…              4.9             2                3               1  
## 3 virgin…              4.9             2.2              4.5             1.4
## # … with 4 more variables: Sepal.Length_max <dbl>, Sepal.Width_max <dbl>,
## #   Petal.Length_max <dbl>, Petal.Width_max <dbl>

iris %>% group_by(Sepal.Width) %>% summarise(f_count=n()) %>% arrange(desc(f_count)) 

## # A tibble: 23 x 2
##    Sepal.Width f_count
##          <dbl>   <int>
##  1         3        26
##  2         2.8      14
##  3         3.2      13
##  4         3.4      12
##  5         3.1      11
##  6         2.9      10
##  7         2.7       9
##  8         2.5       8
##  9         3.3       6
## 10         3.5       6
## # … with 13 more rows

#上述等价iris %>% group_by(Sepal.Width) %>% tally(sort=TRUE)
#tally可以一步完成上述工作，group_by()以后第一次使用tally进行n()操作,再一次就是sum(n) sort=TRUE对结果排序,当等于TRUE是降序
#再次使用tally()就是sum()
iris %>% group_by(Sepal.Width) %>% tally(sort=TRUE)

## # A tibble: 23 x 2
##    Sepal.Width     n
##          <dbl> <int>
##  1         3      26
##  2         2.8    14
##  3         3.2    13
##  4         3.4    12
##  5         3.1    11
##  6         2.9    10
##  7         2.7     9
##  8         2.5     8
##  9         3.3     6
## 10         3.5     6
## # … with 13 more rows
…
## # A tibble: 6 x 4
##   tailnum count  dist delay
##   <chr>   <int> <dbl> <dbl>
## 1 D942DN      4  854. 31.5 
## 2 N0EGMQ    371  676.  9.98
## 3 N10156    153  758. 12.7 
## 4 N102UW     48  536.  2.94
## 5 N103US     46  535. -6.93
## 6 N104UW     47  535.  1.80

ans %>% filter(count>20,dist<2000)

## # A tibble: 2,962 x 4
##    tailnum count  dist  delay
##    <chr>   <int> <dbl>  <dbl>
##  1 N0EGMQ    371  676.  9.98 
##  2 N10156    153  758. 12.7  
##  3 N102UW     48  536.  2.94 
##  4 N103US     46  535. -6.93 
##  5 N104UW     47  535.  1.80 
##  6 N10575    289  520. 20.7  
##  7 N105UW     45  525. -0.267
##  8 N107US     41  529. -5.73 
##  9 N108UW     60  534. -1.25 
## 10 N109UW     48  536. -2.52 
## # … with 2,952 more rows
…
